{
    "classes": [
        {
            "name" : "Account",
            "fields" : [
                {
                    "name" : "id",
                    "type" : "number"
                },
                {
                    "name" : "rekening",
                    "type" : "string"
                },
                {
                    "name" : "interest",
                    "type" : "number"
                },
                {
                    "name" : "customerId",
                    "type" : "number"
                }
            ]

        },
        {
             "name" : "Customer",
            "fields" : [
                {
                    "name" : "phone",
                    "type" : "string"
                },
                {
                    "name" : "phone",
                    "type" : "string"
                },
                {
                    "name" : "name",
                    "type" : "string"
                },
                {
                    "name" : "id",
                    "type" : "number"
                },
                {
                    "name" : "email",
                    "type" : "string"
                }
            ]
        }
    ]
}